// This file is generated automatically. All manually added changes will be removed when running the Converter.
// Map 005-2-1: Saxso's Basement warps
005-2-1,28,34,0	warp	#005-2-1_28_34	0,0,005-2,25,36
