// This file is generated automatically. All manually added changes will be removed when running the Converter.
// Map 001-3-1: Saulc's Palace warps
001-3-1,24,62,0	warp	#001-3-1_24_62	0,0,001-3,127,65
001-3-1,117,62,0	warp	#001-3-1_117_62	0,0,001-3,127,125
001-3-1,45,127,0	warp	#001-3-1_45_127	3,0,001-3,104,81
001-3-1,45,83,0	warp	#001-3-1_45_83	3,0,001-3-1,106,116
001-3-1,107,117,0	warp	#001-3-1_107_117	3,0,001-3-1,44,84
001-3-1,116,127,0	warp	#001-3-1_116_127	2,0,001-3,106,66
001-3-1,97,127,0	warp	#001-3-1_97_127	2,0,001-3,101,66
