// This file is generated automatically. All manually added changes will be removed when running the Converter.
// Map 019-1-1: Miller's House warps
019-1-1,33,42,0	warp	#019-1-1_33_42	0,0,019-1,84,59
