// This file is generated automatically. All manually added changes will be removed when running the Converter.
// Map 001-4: Enchanted Forest mobs
001-4,72,232,23,23	monster	Clover Field	1028,2,60000,120000
001-4,224,238,23,23	monster	Clover Field	1028,2,60000,120000
001-4,226,77,23,23	monster	Clover Field	1028,2,60000,120000
001-4,74,77,23,23	monster	Clover Field	1028,2,60000,120000
001-4,149,149,130,129	monster	Bhop Fluffy	1049,180,60000,120000
001-4,150,149,129,128	monster	Easter Mouboo	1121,40,60000,120000
001-4,72,132,23,23	monster	Easter Angry Forain	1061,1,60000,120000
001-4,125,76,23,23	monster	Easter Angry Forain	1061,1,60000,120000
001-4,176,72,23,23	monster	Easter Angry Forain	1061,1,60000,120000
001-4,228,131,23,23	monster	Easter Angry Forain	1061,1,60000,120000
001-4,226,188,23,23	monster	Easter Angry Forain	1061,1,60000,120000
001-4,174,237,23,23	monster	Easter Angry Forain	1061,1,60000,120000
001-4,125,238,23,23	monster	Easter Angry Forain	1061,1,60000,120000
001-4,72,184,23,23	monster	Easter Angry Forain	1061,1,60000,120000
