// This file is generated automatically. All manually added changes will be removed when running the Converter.
// Map 008-2: 2nd Floor - Party Dungeon warps
008-2,80,255,0	warp	#008-2_80_255	0,0,008-2,54,237
