// Map 003-0-1: The Magic Guild
// This file is generated automatically. All manually added changes will be removed when running the Converter.
"npc/003-0-1/_warps.txt",
"npc/003-0-1/eistein.txt",
"npc/003-0-1/estard.txt",
"npc/003-0-1/guards.txt",
"npc/003-0-1/hiddenwarp.txt",
"npc/003-0-1/lua.txt",
"npc/003-0-1/maxime.txt",
"npc/003-0-1/statues.txt",
