// This file is generated automatically. All manually added changes will be removed when running the Converter.
// Map 022-1: North Icelands warps
022-1,80,65,0	warp	#022-1_80_65	0,0,023-1,57,42
022-1,73,62,0	warp	#022-1_73_62	0,0,023-1,47,58
022-1,58,52,0	warp	#022-1_58_52	0,0,023-1,37,27
022-1,70,81,0	warp	#022-1_70_81	0,0,023-1,52,61
022-1,68,90,0	warp	#022-1_68_90	0,0,023-1,45,69
022-1,49,55,0	warp	#022-1_49_55	0,0,023-1,26,35
022-1,70,112,0	warp	#022-1_70_112	1,0,021-1,136,30
