// This file is generated automatically. All manually added changes will be removed when running the Converter.
// Map 005-1: Candor Island warps
005-1,38,89,0	warp	#005-1_38_89	0,0,005-2,33,42
005-1,41,84,0	warp	#005-1_41_84	0,0,005-3,25,42
005-1,55,80,0	warp	#005-1_55_80	0,0,005-4,25,42
005-1,46,78,0	warp	#005-1_46_78	0,0,005-5,25,41
005-1,34,99,0	warp	#005-1_34_99	0,0,005-7,45,37
005-1,50,85,0	warp	#005-1_50_85	0,0,005-6,33,42
005-1,66,62,0	warp	#005-1_66_62	0,0,005-8,49,53
