// This file is generated automatically. All manually added changes will be removed when running the Converter.
// Map 013-1: Woodlands Central Plateau mobs
013-1,69,83,31,14	monster	Pinkie	1132,9,30000,50000
013-1,76,82,49,21	monster	Mauve Plant	1135,4,90000,90000
