// This file is generated automatically. All manually added changes will be removed when running the Converter.
// Map 020-7-1: Blue Sages' Mansion warps
020-7-1,24,85,0	warp	#020-7-1_24_85	2,0,020-7,55,22
