// This file is generated automatically. All manually added changes will be removed when running the Converter.
// Map 001-1: Floating Island of Aeros mobs
001-1,213,46,6,3	monster	Fada da Natureza	1186,2,30000,0
001-1,239,83,6,3	monster	Fada do Fogo	1183,2,30000,0
001-1,267,78,6,3	monster	Fada da Agua	1184,2,30000,0
001-1,291,57,17,13	monster	Fada do Vento	1185,10,30000,0
001-1,199,83,18,10	monster	Fada da Terra	1182,10,30000,0
001-1,196,58,6,3	monster	Fada da terra	1182,1,30000,0
001-1,251,52,8,7	monster	Fada do Vento	1185,3,30000,0
001-1,279,99,14,12	monster	Fada da Agua	1184,10,30000,0
001-1,241,106,14,12	monster	Fada do Fogo	1183,10,30000,0
001-1,203,107,14,6	monster	Fada da Natureza	1186,4,30000,0
001-1,228,64,6,3	monster	Fada da Natureza	1186,1,30000,0
001-1,107,27,2,1	monster	Dragon	1179,1,3600000,0
