// This file is generated automatically. All manually added changes will be removed when running the Converter.
// Map 015-7: Small Cave mobs
015-7,58,66,37,29	monster	Cave Snake	1035,21,20000,20000
015-7,57,67,31,24	monster	Cave Maggot	1027,16,20000,20000
