// This file is generated automatically. All manually added changes will be removed when running the Converter.
// Map 015-7: Small Cave warps
015-7,38,95,0	warp	#015-7_38_95	0,0,014-5,48,162
015-7,84,66,0	warp	#015-7_84_66	0,0,014-5,59,155
