// TMW2 Script
// Author:
//    Crazyfefe
//    Jesusalva

006-1,49,54,0	script	#FightCaveBarrier	NPC_NO_SPRITE,0,0,{
    if ($@FEFE_CAVE_LEVEL) goto L_Block;
    warp "005-1", 66, 63;
    end;

L_Block:
    dispbottom l("Your coward outer self fails to convince you to leave.");
    end;
}
