// This file is generated automatically. All manually added changes will be removed when running the Converter.
// Map 008-0: Party Dungeon Waiting Hall mobs
008-0,49,49,28,28	monster	Ratto	1005,6,35000,600000
008-0,50,47,28,28	monster	Cave Bat	1039,4,35000,600000
008-0,48,48,28,28	monster	Silk Worm	1034,6,35000,600000
008-0,49,63,29,16	monster	Red Scorpion	1072,3,35000,600000
008-0,49,32,29,14	monster	Scorpion	1071,3,35000,600000
