// This file is generated automatically. All manually added changes will be removed when running the Converter.
// Map 010-1-1: Canyon Great Caves warps
010-1-1,78,73,0	warp	#010-1-1_78_73	0,0,010-1,76,69
010-1-1,31,115,0	warp	#010-1-1_31_115	0,0,010-1,81,91
010-1-1,27,71,0	warp	#010-1-1_27_71	0,0,010-1,52,53
010-1-1,30,39,0	warp	#010-1-1_30_39	0,0,010-1,53,93
010-1-1,41,37,0	warp	#010-1-1_41_37	0,0,010-2,88,114
010-1-1,34,30,0	warp	#010-1-1_34_30	0,0,010-1,45,73
010-1-1,32,24,0	warp	#010-1-1_32_24	0,0,010-2,36,104
010-1-1,43,18,0	warp	#010-1-1_43_18	0,0,010-1,42,35
010-1-1,47,83,0	warp	#010-1-1_47_83	0,0,010-2,162,69
010-1-1,85,98,0	warp	#010-1-1_85_98	0,0,010-1,96,33
010-1-1,163,105,0	warp	#010-1-1_163_105	0,0,010-1,110,84
010-1-1,142,120,0	warp	#010-1-1_142_120	0,0,004-2,98,35
010-1-1,170,49,0	warp	#010-1-1_170_49	0,0,010-2,108,128
010-1-1,178,85,0	warp	#010-1-1_178_85	0,0,010-1,87,39
010-1-1,112,44,0	warp	#010-1-1_112_44	0,0,010-2,114,104
010-1-1,119,36,0	warp	#010-1-1_119_36	0,0,010-2,123,100
010-1-1,112,42,0	warp	#010-1-1_112_42	0,0,010-1,105,30
010-1-1,168,23,0	warp	#010-1-1_168_23	0,0,010-2,175,81
010-1-1,176,50,0	warp	#010-1-1_176_50	0,0,010-2,136,116
