// This file is generated automatically. All manually added changes will be removed when running the Converter.
// Map 012-1: Hurnscald warps
012-1,22,62,0	warp	#012-1_22_62	0,3,014-3,205,92
012-1,79,17,0	warp	#012-1_79_17	3,0,014-1,78,97
012-1,79,102,0	warp	#012-1_79_102	3,0,014-2,178,22
012-1,132,101,0	warp	#012-1_132_101	2,0,014-2,232,21
012-1,65,55,0	warp	#012-1_65_55	0,0,012-2,36,46
012-1,89,58,0	warp	#012-1_89_58	0,0,012-3,41,45
012-1,101,55,0	warp	#012-1_101_55	0,0,012-4,35,30
012-1,121,71,0	warp	#012-1_121_71	0,0,012-5,34,36
012-1,116,66,0	warp	#012-1_116_66	0,0,012-5,23,26
012-1,110,56,0	warp	#012-1_110_56	0,0,012-6,58,68
012-1,102,69,0	warp	#012-1_102_69	0,0,012-7,35,64
012-1,95,69,0	warp	#012-1_95_69	0,0,012-8,33,32
