// This file is generated automatically. All manually added changes will be removed when running the Converter.
// Map 018-5-0: Heroes' Hold - Exchange Hall warps
018-5-0,139,25,0	warp	#018-5-0_139_25	0,9,018-5,39,133
