// This file is generated automatically. All manually added changes will be removed when running the Converter.
// Map 009-2: Halinarzo Library & Bar warps
009-2,28,66,0	warp	#009-2_28_66	0,0,009-1,73,64
009-2,62,67,0	warp	#009-2_62_67	0,0,009-1,84,64
