// This file is generated automatically. All manually added changes will be removed when running the Converter.
// Map 014-4: Thunderhill mobs
014-4,134,85,26,22	monster	Centaur	1139,3,90000,80000
014-4,61,38,43,23	monster	Mana Piou	1155,7,30000,30000
014-4,130,68,24,52	monster	Forest Mushroom	1060,10,60000,45000
014-4,70,77,53,13	monster	Living Potato	1181,5,60000,45000
014-4,20,26,4,20	monster	Bluepar	1177,4,30000,30000
014-4,83,65,44,36	monster	Red Butterfly	1025,30,60000,45000
