// This file is generated automatically. All manually added changes will be removed when running the Converter.
// Map 014-4: Thunderhill warps
014-4,95,32,0	warp	#014-4_95_32	0,0,017-1,104,102
014-4,159,69,0	warp	#014-4_159_69	0,3,014-3,30,69
