// This file is generated automatically. All manually added changes will be removed when running the Converter.
// Map 011-2: Supreme Mana Cave warps
011-2,78,73,0	warp	#011-2_78_73	0,0,004-2,100,90
011-2,26,86,0	warp	#011-2_26_86	0,0,004-2,84,78
011-2,25,47,0	warp	#011-2_25_47	0,0,010-1,93,67
011-2,51,26,0	warp	#011-2_51_26	0,0,004-2,116,35
