// This file is generated automatically. All manually added changes will be removed when running the Converter.
// Map 008-1: 1st Floor - Party Dungeon warps
008-1,176,19,0	warp	#008-1_176_19	0,0,008-0,47,64
