// This file is generated automatically. All manually added changes will be removed when running the Converter.
// Map 027-1: Hades mobs
027-1,94,28,6,2	monster	Lobo Negro	1051,2,60000,0
027-1,85,81,9,8	monster	Lobo Negro	1051,5,60000,0
027-1,110,87,11,11	monster	Lobo Negro	1051,5,60000,0
027-1,54,93,10,7	monster	Lobo Negro	1051,5,60000,0
027-1,37,27,5,5	monster	Lobo Negro	1051,2,60000,0
027-1,112,39,10,8	monster	Lobo Negro	1051,5,60000,0
027-1,152,64,10,5	monster	Lobo Negro	1051,5,60000,0
027-1,70,110,6,6	monster	Lobo Negro	1051,3,60000,0
027-1,50,67,6,6	monster	Lobo Negro	1051,1,60000,0
027-1,126,65,6,6	monster	Lobo Negro	1051,5,60000,0
027-1,31,93,6,6	monster	Lobo Negro	1051,3,60000,0
027-1,90,100,4,3	monster	Lobo Negro	1051,1,60000,0
027-1,149,85,6,6	monster	Lobo Negro	1051,5,60000,0
027-1,140,46,3,2	monster	Lobo Negro	1051,1,60000,0
027-1,162,107,13,6	monster	Lobo Negro	1051,5,60000,0
027-1,157,44,6,6	monster	Lobo Negro	1051,5,60000,0
027-1,101,60,74,41	monster	Alma	1076,25,60000,0
027-1,98,61,74,40	monster	Lava Slime	1097,25,60000,0
027-1,162,107,2,1	monster	Morcego gigante mutante	1044,1,3600000,0
027-1,134,112,5,4	monster	Lobo Negro	1051,2,60000,0
