// This file is generated automatically. All manually added changes will be removed when running the Converter.
// Map 024-11: Frostia Indoors warps
024-11,24,35,0	warp	#024-11_24_35	0,0,024-1,105,35
