// This file is generated automatically. All manually added changes will be removed when running the Converter.
// Map 028-1: Woodland Swamp warps
028-1,19,66,0	warp	#028-1_19_66	0,0,029-1,128,66
028-1,130,58,0	warp	#028-1_130_58	0,2,016-1,21,53
028-1,76,105,0	warp	#028-1_76_105	0,0,025-1,258,39
