// This file is generated automatically. All manually added changes will be removed when running the Converter.
// Map 019-3: Snow Forest mobs
019-3,88,63,88,63	monster	Fluffy	1022,50,100000,30000
019-3,74,61,55,42	monster	Wolvern	1037,35,100000,30000
019-3,76,46,71,34	monster	Santa Slime	1096,40,100000,30000
