// This file is generated automatically. All manually added changes will be removed when running the Converter.
// Map 017-4: Tech-User Forge warps
017-4,27,42,0	warp	#017-4_27_42	0,0,017-1,150,88
017-4,35,42,0	warp	#017-4_35_42	0,0,017-1,155,88
